<svg xmlns="http://www.w3.org/2000/svg" width="17.639" height="17.476" viewBox="0 0 17.639 17.476">
  <g id="Group_12119" data-name="Group 12119" transform="translate(285.741 -172.414) rotate(90)">
    <g id="Group_1296" data-name="Group 1296" transform="translate(172.414 268.102)">
      <path id="Path_1426" data-name="Path 1426" d="M185.816,414.194c-.014.224-.023.362-.031.5a1.186,1.186,0,0,1-1.117,1.178,18.357,18.357,0,0,1-1.879,0,1.17,1.17,0,0,1-1.108-1.133c-.014-.167-.032-.334-.052-.545h-8.4c-.125,0-.251.007-.376,0a.367.367,0,0,1-.384-.336c-.024-.221.089-.367.352-.414a2.66,2.66,0,0,1,.468-.025l7.755,0c.184,0,.368-.01.59-.016.019-.209.035-.376.05-.543a1.123,1.123,0,0,1,1.057-1.066c.656-.032,1.316-.033,1.972,0a1.147,1.147,0,0,1,1.071,1.11c.01.139.017.278.028.473.176.015.34.041.5.042.956,0,1.911,0,2.867.005a1.986,1.986,0,0,1,.463.049.337.337,0,0,1,.264.39.345.345,0,0,1-.3.32,1.728,1.728,0,0,1-.374.019q-1.434,0-2.867,0Z" transform="translate(-172.462 -398.257)" fill="#fff"/>
      <path id="Path_1427" data-name="Path 1427" d="M183.274,269.8c.02-.214.037-.381.051-.548a1.169,1.169,0,0,1,1.153-1.135c.594-.024,1.19-.024,1.784,0a1.194,1.194,0,0,1,1.16,1.138c.013.153,0,.307,0,.5.179.019.313.043.447.044.454.005.908,0,1.362,0a1.011,1.011,0,0,1,.323.035.344.344,0,0,1,.232.369.305.305,0,0,1-.233.314,1.809,1.809,0,0,1-.415.058c-.391.008-.783,0-1.174,0-.153,0-.306.016-.5.026-.016.178-.031.329-.043.48a1.187,1.187,0,0,1-1.157,1.134c-.61,0-1.222.019-1.831-.008a1.129,1.129,0,0,1-1.114-1.11c-.013-.153-.029-.305-.048-.5-.213-.009-.4-.022-.579-.022h-9.486a2.669,2.669,0,0,1-.468-.02.364.364,0,0,1-.329-.391.357.357,0,0,1,.356-.361,3.78,3.78,0,0,1,.422-.007h10.082Z" transform="translate(-172.414 -268.102)" fill="#fff"/>
      <path id="Path_1428" data-name="Path 1428" d="M176.837,342.48c-.206-.011-.374-.028-.541-.029-.955,0-1.911,0-2.866,0a1.863,1.863,0,0,1-.42-.026.348.348,0,0,1,.014-.677,1.856,1.856,0,0,1,.374-.021q1.433,0,2.866,0h.56c.02-.19.042-.338.049-.487a1.177,1.177,0,0,1,1.23-1.2c.564-.01,1.128-.012,1.692,0a1.166,1.166,0,0,1,1.186,1.144c.013.166.041.33.068.542H189.4a4.2,4.2,0,0,1,.516.019.3.3,0,0,1,.277.325.315.315,0,0,1-.286.364,3.189,3.189,0,0,1-.469.017h-7.565c-.141,0-.282,0-.423,0-.418.012-.432.027-.465.461a1.183,1.183,0,0,1-1.3,1.227q-.775.01-1.551,0a1.187,1.187,0,0,1-1.265-1.262C176.867,342.768,176.853,342.66,176.837,342.48Z" transform="translate(-172.717 -333.269)" fill="#fff"/>
    </g>
  </g>
</svg>
