<svg xmlns="http://www.w3.org/2000/svg" xmlns:xlink="http://www.w3.org/1999/xlink" width="90" height="70" viewBox="0 0 90 70">
  <defs>
    <clipPath id="clip-path">
      <rect id="Rectangle_4152" data-name="Rectangle 4152" width="90" height="70" transform="translate(293 297)" fill="#fff" stroke="#707070" stroke-width="1"/>
    </clipPath>
  </defs>
  <g id="Mask_Group_28" data-name="Mask Group 28" transform="translate(-293 -297)" clip-path="url(#clip-path)">
    <text id="_" data-name="%" transform="translate(293 370)" fill="#fff" font-size="105" font-family="Montserrat-SemiBold, Montserrat" font-weight="600" opacity="0.21"><tspan x="0" y="0">%</tspan></text>
  </g>
</svg>
