<svg xmlns="http://www.w3.org/2000/svg" width="20" height="20" viewBox="0 0 20 20">
  <g id="Group_52149" data-name="Group 52149" transform="translate(-362 -1196)">
    <circle id="Ellipse_79" data-name="Ellipse 79" cx="10" cy="10" r="10" transform="translate(362 1196)" fill="#00b65f"/>
    <path id="chevron-forward_1_" data-name="chevron-forward (1)" d="M184,112l4.483,4.483L184,120.965" transform="translate(186.5 1089.5)" fill="none" stroke="#fff" stroke-linecap="round" stroke-linejoin="round" stroke-width="1"/>
  </g>
</svg>
