<svg xmlns="http://www.w3.org/2000/svg" width="536.797" height="528.883" viewBox="0 0 536.797 528.883">
  <path id="Path_2364" data-name="Path 2364" d="M472.056-14.752c-33.006,24.831-30.168,58.038,2.339,91.461,33.907,34.862,100.717,69.946,192.858,95.35,179.613,49.519,191.363,211.507,191.363,211.507s3.357,64.627,90.646,100.717S938.351-31.894,938.351-31.894,539.831-65.74,472.056-14.752Z" transform="translate(-448.62 42.905)" fill="#00b65f"/>
</svg>
